…
**Question 3**: How does arrange() treat missing values, and how could
you sort all of the rows with a missing arr\_time to the top of the
dataset?

``` r
# With the arrange() function, all non-missing values get sorted in ascending or
# descending fashion; then rows with missing values get displayed. The following
# code brings the missing values to the top with desc(is.na(arr_time)):

flights %>% 
  arrange(is.na(arr_time) %>% desc())
```

    ## # A tibble: 336,776 x 19
    ##     year month   day dep_time sched_dep_time dep_delay arr_time
    ##    <int> <int> <int>    <int>          <int>     <dbl>    <int>
    ##  1  2013     1     1     2016           1930        46       NA
    ##  2  2013     1     1       NA           1630        NA       NA
    ##  3  2013     1     1       NA           1935        NA       NA
    ##  4  2013     1     1       NA           1500        NA       NA
    ##  5  2013     1     1       NA            600        NA       NA
    ##  6  2013     1     2     2041           2045        -4       NA
    ##  7  2013     1     2     2145           2129        16       NA
    ##  8  2013     1     2       NA           1540        NA       NA
    ##  9  2013     1     2       NA           1620        NA       NA
    ## 10  2013     1     2       NA           1355        NA       NA
    ## # … with 336,766 more rows, and 12 more variables: sched_arr_time <int>,
    ## #   arr_delay <dbl>, carrier <chr>, flight <int>, tailnum <chr>,
    ## #   origin <chr>, dest <chr>, air_time <dbl>, distance <dbl>, hour <dbl>,
    ## #   minute <dbl>, time_hour <dttm>
