…
    ## [1] 458

**Question 3**: How does [`arrange()`](http://r4ds.had.co.nz/transform.html#arrange-rows-with-arrange) treat missing values? How could you sort all rows with a missing `arr_time` to the top of the dataset?

With the arrange function, all non-missing values get sorted in ascending or descending fashion; then rows with missing values get displayed. The following code brings missing values to the top, then sorts the observations in descending order:

``` r
flights %>% 
  arrange(desc(is.na(arr_time)), desc(arr_time))
```

    ## # A tibble: 336,776 x 19
    ##     year month   day dep_time sched_dep_time dep_delay arr_time
    ##    <int> <int> <int>    <int>          <int>     <dbl>    <int>
    ##  1  2013     1     1     2016           1930       46.       NA
    ##  2  2013     1     1       NA           1630       NA        NA
    ##  3  2013     1     1       NA           1935       NA        NA
    ##  4  2013     1     1       NA           1500       NA        NA
    ##  5  2013     1     1       NA            600       NA        NA
    ##  6  2013     1     2     2041           2045       -4.       NA
    ##  7  2013     1     2     2145           2129       16.       NA
    ##  8  2013     1     2       NA           1540       NA        NA
    ##  9  2013     1     2       NA           1620       NA        NA
    ## 10  2013     1     2       NA           1355       NA        NA
    ## # ... with 336,766 more rows, and 12 more variables: sched_arr_time <int>,
    ## #   arr_delay <dbl>, carrier <chr>, flight <int>, tailnum <chr>,
    ## #   origin <chr>, dest <chr>, air_time <dbl>, distance <dbl>, hour <dbl>,
    ## #   minute <dbl>, time_hour <dttm>

**Question 4**: What do you observe after running the code below? How does this behavior reflect how [`select()`](http://r4ds.had.co.nz/transform.html#select-columns-with-select) helpers deal with uppercase and lowercase matching by default? How can you change that default?

``` r
select(flights, contains("TIME"))
```

    ## # A tibble: 336,776 x 6
    ##    dep_time sched_dep_time arr_time sched_arr_time air_time
    ##       <int>          <int>    <int>          <int>    <dbl>
    ##  1      517            515      830            819     227.
    ##  2      533            529      850            830     227.
    ##  3      542            540      923            850     160.
    ##  4      544            545     1004           1022     183.
    ##  5      554            600      812            837     116.
    ##  6      554            558      740            728     150.
    ##  7      555            600      913            854     158.
    ##  8      557            600      709            723      53.
    ##  9      557            600      838            846     140.
    ## 10      558            600      753            745     138.
    ## # ... with 336,766 more rows, and 1 more variable: time_hour <dttm>
…
