…
------------------------------------------------------------------------

**Question 3**: How are missing values treated by `arrange()`? How could you sort all rows with a missing `arr_time` to the top of the dataset?
*This question is based on [5.3.1.\#1](http://r4ds.had.co.nz/transform.html#exercises-8) and test how [`arrange()`](http://r4ds.had.co.nz/transform.html#arrange-rows-with-arrange) treats `NA` values.*

**Answer**: With the `arrange()` function all non-missing values are sorted in ascending or descending fashion, and then the rows with missing values are displayed last.

Here is the code to sort observations in descending order with the missing values at the top:

``` r
flights %>% 
  arrange(desc(is.na(arr_time)), desc(arr_time))
```

    ## # A tibble: 336,776 x 19
    ##     year month   day dep_time sched_dep_time dep_delay arr_time
    ##    <int> <int> <int>    <int>          <int>     <dbl>    <int>
    ##  1  2013     1     1     2016           1930     46.0        NA
    ##  2  2013     1     1       NA           1630     NA          NA
    ##  3  2013     1     1       NA           1935     NA          NA
    ##  4  2013     1     1       NA           1500     NA          NA
    ##  5  2013     1     1       NA            600     NA          NA
    ##  6  2013     1     2     2041           2045    - 4.00       NA
    ##  7  2013     1     2     2145           2129     16.0        NA
    ##  8  2013     1     2       NA           1540     NA          NA
    ##  9  2013     1     2       NA           1620     NA          NA
    ## 10  2013     1     2       NA           1355     NA          NA
    ## # ... with 336,766 more rows, and 12 more variables: sched_arr_time <int>,
    ## #   arr_delay <dbl>, carrier <chr>, flight <int>, tailnum <chr>,
    ## #   origin <chr>, dest <chr>, air_time <dbl>, distance <dbl>, hour <dbl>,
    ## #   minute <dbl>, time_hour <dttm>
…
1.  ORD = 5.4%
2.  ATL = 5.0%
3.  SFO = 3.9%

``` r
flights %>%
  filter(dep_delay > 0) %>%
  group_by(dest) %>%
  summarize(delay_mins = sum(dep_delay)) %>%
  mutate(delay_pct_of_total = delay_mins / sum(delay_mins)) %>%
  arrange(-delay_pct_of_total)
```

    ## # A tibble: 103 x 3
    ##    dest  delay_mins delay_pct_of_total
    ##    <chr>      <dbl>              <dbl>
    ##  1 ORD       275023             0.0544
    ##  2 ATL       254414             0.0503
    ##  3 SFO       197238             0.0390
    ##  4 MCO       195015             0.0386
    ##  5 BOS       185833             0.0367
    ##  6 LAX       185631             0.0367
    ##  7 FLL       182464             0.0361
    ##  8 CLT       171878             0.0340
    ##  9 DTW       136887             0.0271
    ## 10 MIA       135136             0.0267
    ## # ... with 93 more rows
