…
Using the [`who` dataset](http://r4ds.had.co.nz/tidy-data.html#case-study), calculate the total number of cases of TB per year for China, India, and Bangladesh, then plot these statistics over time. What country-year statistics, if any, surprise you?

**Hint:** Build on this code, which tidies `who`:

``` r
who %>%
  gather(code, value, new_sp_m014:newrel_f65, na.rm = TRUE) %>% 
  mutate(code = gsub("newrel", "new_rel", code)) %>%
  separate(code, c("new", "var", "sexage")) %>% 
  select(-new, -iso2, -iso3) %>% 
  separate(sexage, c("sex", "age"), sep = 1)
```

    ## # A tibble: 76,046 x 6
    ##    country      year var   sex   age   value
    ##    <chr>       <int> <chr> <chr> <chr> <int>
    ##  1 Afghanistan  1997 sp    m     014       0
    ##  2 Afghanistan  1998 sp    m     014      30
    ##  3 Afghanistan  1999 sp    m     014       8
    ##  4 Afghanistan  2000 sp    m     014      52
    ##  5 Afghanistan  2001 sp    m     014     129
    ##  6 Afghanistan  2002 sp    m     014      90
    ##  7 Afghanistan  2003 sp    m     014     127
    ##  8 Afghanistan  2004 sp    m     014     139
    ##  9 Afghanistan  2005 sp    m     014     151
    ## 10 Afghanistan  2006 sp    m     014     193
    ## # ... with 76,036 more rows
…
